…
  If `TRUE`, keep all variables in `.data`. If a combination of `...` is
  not distinct, this keeps the first row of values.

## Examples

``` r
library(dplyr, warn.conflicts = FALSE)
df <- lazy_dt(data.frame(
  x = sample(10, 100, replace = TRUE),
  y = sample(10, 100, replace = TRUE)
))

df %>% distinct(x)
#> Source: local data table [10 x 1]
#> Call:   unique(`_DT7`[, .(x)])
#> 
#>       x
#>   <int>
#> 1     6
#> 2     9
#> 3     5
#> 4     8
#> 5     2
#> 6     7
#> # ℹ 4 more rows
#> 
#> # Use as.data.table()/as.data.frame()/as_tibble() to access results
df %>% distinct(x, y)
#> Source: local data table [59 x 2]
#> Call:   unique(`_DT7`)
#> 
#>       x     y
#>   <int> <int>
#> 1     6     3
#> 2     9     3
#> 3     5     1
#> 4     5    10
#> 5     8     7
#> 6     2     5
#> # ℹ 53 more rows
#> 
#> # Use as.data.table()/as.data.frame()/as_tibble() to access results
df %>% distinct(x, .keep_all = TRUE)
#> Source: local data table [10 x 2]
#> Call:   unique(`_DT7`, by = "x")
#> 
#>       x     y
#>   <int> <int>
#> 1     6     3
#> 2     9     3
#> 3     5     1
#> 4     8     7
#> 5     2     5
#> 6     7     4
#> # ℹ 4 more rows
…
