…
# Other uses -------------------------------------------------------
fruits %>% expand(type, size, 2010:2012)
#> Source: local data table [18 x 3]
#> Call:   `_DT9`[, CJ(type = type, size = size, V3 = 2010:2012, unique = TRUE)]
#> 
#>   type  size     V3
#>   <chr> <fct> <int>
#> 1 apple XS     2010
#> 2 apple XS     2011
#> 3 apple XS     2012
#> 4 apple S      2010
#> 5 apple S      2011
#> 6 apple S      2012
#> # ℹ 12 more rows
#> 
#> # Use as.data.table()/as.data.frame()/as_tibble() to access results

# Use `anti_join()` to determine which observations are missing
all <- fruits %>% expand(type, size, year)
all
#> Source: local data table [12 x 3]
#> Call:   `_DT9`[, CJ(type = type, size = size, year = year, unique = TRUE)]
#> 
#>   type  size   year
#>   <chr> <fct> <dbl>
#> 1 apple XS     2010
#> 2 apple XS     2012
#> 3 apple S      2010
#> 4 apple S      2012
#> 5 apple M      2010
#> 6 apple M      2012
#> # ℹ 6 more rows
#> 
#> # Use as.data.table()/as.data.frame()/as_tibble() to access results
all %>% dplyr::anti_join(fruits)
#> Joining, by = c("type", "size", "year")
#> Source: local data table [8 x 3]
#> Call:   `_DT9`[, CJ(type = type, size = size, year = year, unique = TRUE)][!`_DT9`, 
#>     on = .(type, size, year)]
#> 
#>   type   size   year
#>   <chr>  <fct> <dbl>
#> 1 apple  XS     2012
#> 2 apple  S      2010
#> 3 apple  S      2012
#> 4 apple  M      2010
#> 5 orange XS     2010
#> 6 orange XS     2012
#> # ℹ 2 more rows
#> 
#> # Use as.data.table()/as.data.frame()/as_tibble() to access results

# Use with `right_join()` to fill in missing rows
fruits %>% dplyr::right_join(all)
#> Joining, by = c("type", "year", "size")
#> Source: local data table [14 x 4]
#> Call:   `_DT9`[`_DT9`[, CJ(type = type, size = size, year = year, unique = TRUE)], 
#>     on = .(type, year, size), allow.cartesian = TRUE]
#> 
#>   type   year size  weights
#>   <chr> <dbl> <fct>   <dbl>
#> 1 apple  2010 XS       4.05
#> 2 apple  2012 XS      NA   
#> 3 apple  2010 S       NA   
#> 4 apple  2012 S       NA   
#> 5 apple  2010 M       NA   
#> 6 apple  2012 M        5.04
#> # ℹ 8 more rows
…
