…
# drop first three rows
tail(dt, -3)
#> Source: local data table [7 x 1]
#> Call:   tail(`_DT17`, n = -3)
#> 
#>       x
#>   <int>
#> 1     4
#> 2     5
#> 3     6
#> 4     7
#> 5     8
#> 6     9
#> # ℹ 1 more row
…
