…
#> Source: local data table [3 x 11]
#> Call:   `_DT37`[{
#>     .rows <- c(1, 5, 10)
#>     .rows[between(.rows, -.N, .N)]
#> }]
#> 
#>     mpg   cyl  disp    hp  drat    wt  qsec    vs    am  gear  carb
#>   <dbl> <dbl> <dbl> <dbl> <dbl> <dbl> <dbl> <dbl> <dbl> <dbl> <dbl>
#> 1  21       6  160    110  3.9   2.62  16.5     0     1     4     4
#> 2  18.7     8  360    175  3.15  3.44  17.0     0     0     3     2
#> 3  19.2     6  168.   123  3.92  3.44  18.3     1     0     4     4
#> 
#> # Use as.data.table()/as.data.frame()/as_tibble() to access results
dt %>% slice(-(1:4))
#> Source: local data table [28 x 11]
#> Call:   `_DT37`[{
#>     .rows <- -(1:4)
#>     .rows[between(.rows, -.N, .N)]
#> }]
#> 
#>     mpg   cyl  disp    hp  drat    wt  qsec    vs    am  gear  carb
#>   <dbl> <dbl> <dbl> <dbl> <dbl> <dbl> <dbl> <dbl> <dbl> <dbl> <dbl>
#> 1  18.7     8  360    175  3.15  3.44  17.0     0     0     3     2
#> 2  18.1     6  225    105  2.76  3.46  20.2     1     0     3     1
#> 3  14.3     8  360    245  3.21  3.57  15.8     0     0     3     4
#> 4  24.4     4  147.    62  3.69  3.19  20       1     0     4     2
#> 5  22.8     4  141.    95  3.92  3.15  22.9     1     0     4     2
#> 6  19.2     6  168.   123  3.92  3.44  18.3     1     0     4     4
#> # ℹ 22 more rows
…
# slice_min() and slice_max() may return more rows than requested
# in the presence of ties. Use with_ties = FALSE to suppress
dt %>% slice_min(cyl, n = 1)
#> Source: local data table [11 x 11]
#> Call:   setorder(`_DT37`[rank(cyl, ties.method = "min", na.last = "keep") <= 
#>     min(1L, .N)], cyl, na.last = TRUE)
#> 
#>     mpg   cyl  disp    hp  drat    wt  qsec    vs    am  gear  carb
#>   <dbl> <dbl> <dbl> <dbl> <dbl> <dbl> <dbl> <dbl> <dbl> <dbl> <dbl>
#> 1  22.8     4 108      93  3.85  2.32  18.6     1     1     4     1
#> 2  24.4     4 147.     62  3.69  3.19  20       1     0     4     2
#> 3  22.8     4 141.     95  3.92  3.15  22.9     1     0     4     2
#> 4  32.4     4  78.7    66  4.08  2.2   19.5     1     1     4     1
#> 5  30.4     4  75.7    52  4.93  1.62  18.5     1     1     4     2
#> 6  33.9     4  71.1    65  4.22  1.84  19.9     1     1     4     1
#> # ℹ 5 more rows
…
