…
# `fill()` defaults to replacing missing data from top to bottom
sales %>% fill(year)
#> Source: local data table [16 x 3]
#> Call:   copy(`_DT10`)[, `:=`(year = nafill(year, "locf"))]
#> 
#>   quarter  year sales
#>   <chr>   <dbl> <dbl>
#> 1 Q1       2000 66013
#> 2 Q2       2000 69182
#> 3 Q3       2000 53175
#> 4 Q4       2000 21001
#> 5 Q1       2001 46036
#> 6 Q2       2001 58842
#> # ℹ 10 more rows
…
# The values are inconsistently missing by position within the group
# Use .direction = "downup" to fill missing values in both directions
squirrels %>%
  dplyr::group_by(group) %>%
  fill(n_squirrels, .direction = "downup") %>%
  dplyr::ungroup()
#> Source: local data table [12 x 4]
#> Call:   copy(`_DT12`)[, `:=`(n_squirrels = nafill(nafill(n_squirrels, 
#>     "locf"), "nocb")), by = .(group)]
#> 
#>   group name    role        n_squirrels
#>   <dbl> <chr>   <chr>             <dbl>
#> 1     1 Sam     Observer              8
#> 2     1 Mara    Scorekeeper           8
#> 3     1 Jesse   Observer              8
#> 4     1 Tom     Observer              8
#> 5     2 Mike    Observer             14
#> 6     2 Rachael Observer             14
#> # ℹ 6 more rows
…
