…
  - A vector the same length as the current group (or the whole data
    frame if ungrouped).

  - `NULL`, to remove the column.

  - A data frame or tibble, to create multiple columns in the output.

## Examples

``` r
library(dplyr, warn.conflicts = FALSE)

dt <- lazy_dt(dplyr::starwars)
dt %>% transmute(name, sh = paste0(species, "/", homeworld))
#> Source: local data table [87 x 2]
#> Call:   copy(`_DT40`)[, `:=`(sh = paste0(species, "/", homeworld))][, 
#>     `:=`(c("height", "mass", "hair_color", "skin_color", "eye_color", 
#>     "birth_year", "sex", "gender", "homeworld", "species", "films", 
#>     "vehicles", "starships"), NULL)]
#> 
#>   name           sh            
#>   <chr>          <chr>         
#> 1 Luke Skywalker Human/Tatooine
#> 2 C-3PO          Droid/Tatooine
#> 3 R2-D2          Droid/Naboo   
#> 4 Darth Vader    Human/Tatooine
#> 5 Leia Organa    Human/Alderaan
#> 6 Owen Lars      Human/Tatooine
#> # ℹ 81 more rows
…
